{
  "template": "custom",
  "build_dir": "./bin/ubuntu-touch/",
  "build": "../../utils/build-linux-click.sh",
  "kill": "kaidan",
  "dependencies_build": [
    "ninja-build",
    "extra-cmake-modules"
  ],
  "libraries": {
    "qxmpp": {
      "template": "cmake",
      "src_dir": "3rdparty/qxmpp",
      "make_jobs": 2,
      "build_args": [
        "-DCMAKE_BUILD_TYPE=Release",
        "-DBUILD_TESTS=OFF",
        "-DBUILD_EXAMPLES=OFF",
        "-DCMAKE_PREFIX_PATH=../../../bin/ubuntu-touch/tmp",
        "-DCMAKE_INSTALL_PREFIX=../../../bin/ubuntu-touch/tmp"
      ],
      "postbuild": "make install"
    }
  }
}
